%YAML 1.1
%TAG !u! tag:unity3d.com,2011:
--- !u!1045 &1
EditorBuildSettings:
  m_ObjectHideFlags: 0
  serializedVersion: 2
  m_Scenes:
  - enabled: 1
    path: Assets/Scenes/MainMenu.unity
    guid: 0f8b3d4ca3a80b540805c234b9fc0a5e
  - enabled: 1
    path: Assets/Scenes/Level1.unity
    guid: d1c3109bdb54ad54c8a2b2838528e640
  - enabled: 1
    path: Assets/Scenes/Level2.unity
    guid: 4422f6cb542483c47bb83657a8070a86
  - enabled: 1
    path: Assets/Scenes/Level3.unity
    guid: 3c203d0a2c762e74c84188ae8462135f
  - enabled: 1
    path: Assets/Scenes/ShaderShowcase.unity
    guid: 0e2510e94eda0704f9df7d066ea4a3d7
  m_configObjects: {}
